NYPD Shooting Information
…
shootinginfo

## # A tibble: 23,585 x 18
##    INCIDENT_KEY OCCUR_DATE OCCUR_TIME BORO     JURISDICTION_CODE LOCATION_DESC
##           <dbl> <chr>      <time>     <chr>                <dbl> <chr>        
##  1     24050482 08/27/2006 05:35      BRONX                    0 <NA>         
##  2     77673979 03/11/2011 12:03      QUEENS                   0 <NA>         
##  3    203350417 10/06/2019 01:09      BROOKLYN                 0 <NA>         
##  4     80584527 09/04/2011 03:35      BRONX                    0 <NA>         
##  5     90843766 05/27/2013 21:16      QUEENS                   0 <NA>         
##  6     92393427 09/01/2013 04:17      BROOKLYN                 0 <NA>         
##  7     73057167 06/05/2010 21:16      BROOKLYN                 0 <NA>         
##  8    211362213 03/20/2020 21:27      BROOKLYN                 0 <NA>         
##  9    137564752 07/04/2014 00:25      QUEENS                   0 <NA>         
## 10    147024011 10/18/2015 01:33      QUEENS                   0 <NA>         
## # ... with 23,575 more rows, and 12 more variables:
## #   STATISTICAL_MURDER_FLAG <lgl>, PERP_AGE_GROUP <chr>, PERP_SEX <chr>,
## #   PERP_RACE <chr>, VIC_AGE_GROUP <chr>, VIC_SEX <chr>, VIC_RACE <chr>,
## #   X_COORD_CD <dbl>, Y_COORD_CD <dbl>, Latitude <dbl>, Longitude <dbl>,
## #   Lon_Lat <chr>
…
